<?xml version="1.0" encoding="UTF-8" standalone="no"?>
<!-- Generator: Adobe Illustrator 22.1.0, SVG Export Plug-In . SVG Version: 6.00 Build 0)  -->

<svg
   xmlns:dc="http://purl.org/dc/elements/1.1/"
   xmlns:cc="http://creativecommons.org/ns#"
   xmlns:rdf="http://www.w3.org/1999/02/22-rdf-syntax-ns#"
   xmlns:svg="http://www.w3.org/2000/svg"
   xmlns="http://www.w3.org/2000/svg"
   xmlns:sodipodi="http://sodipodi.sourceforge.net/DTD/sodipodi-0.dtd"
   xmlns:inkscape="http://www.inkscape.org/namespaces/inkscape"
   version="1.1"
   id="Layer_1"
   x="0px"
   y="0px"
   viewBox="0 0 255.99999 255.99999"
   xml:space="preserve"
   sodipodi:docname="ignition_icon_white.svg"
   width="256"
   height="256"
   inkscape:version="0.92.3 (2405546, 2018-03-11)"><metadata
   id="metadata22"><rdf:RDF><cc:Work
       rdf:about=""><dc:format>image/svg+xml</dc:format><dc:type
         rdf:resource="http://purl.org/dc/dcmitype/StillImage" /><dc:title></dc:title></cc:Work></rdf:RDF></metadata><defs
   id="defs20" /><sodipodi:namedview
   pagecolor="#ffffff"
   bordercolor="#666666"
   borderopacity="1"
   objecttolerance="10"
   gridtolerance="10"
   guidetolerance="10"
   inkscape:pageopacity="0"
   inkscape:pageshadow="2"
   inkscape:window-width="1472"
   inkscape:window-height="1101"
   id="namedview18"
   showgrid="false"
   inkscape:zoom="1.0680141"
   inkscape:cx="289.46262"
   inkscape:cy="83.527013"
   inkscape:window-x="348"
   inkscape:window-y="62"
   inkscape:window-maximized="0"
   inkscape:current-layer="Layer_1"
   fit-margin-top="0"
   fit-margin-left="0"
   fit-margin-right="0"
   fit-margin-bottom="0"
   units="px" />
<style
   type="text/css"
   id="style2">
	.st0{display:none;}
	.st1{fill:url(#SVGID_1_);}
	.st2{fill:#DE6921;stroke:#E5B734;stroke-miterlimit:10;}
</style>
<g
   id="g15"
   transform="matrix(0.05347708,0,0,0.05347708,-5.8985868,-6.104502)"
   style="fill:#ffffff">
	<path
   class="st0"
   d="M 5003.4,5004 C 3337.1,5004 1670.6,5004 4,5004 4,3337.5 4,1671.1 4,4.3 c 1666.2,0 3332.5,0 4999.4,0 0,1666.4 0,3333 0,4999.7 z M 2631.7,2795.8 c -131.6,-86.2 -263.1,-172.4 -394.7,-258.6 -44,-28.8 -88.2,-57.6 -132.1,-86.6 -3.5,-2.3 -9.2,-3.2 -8.4,-10.7 33.8,2.9 67.6,5.7 101.3,8.7 33.9,3 67.7,6.4 101.5,9.3 33.5,2.9 67,6.7 101.7,8.6 -1.8,-8.6 -7.1,-12.9 -11.2,-17.9 -97.2,-120.3 -194.5,-240.5 -291.7,-360.8 -54.9,-67.9 -109.8,-135.8 -164.6,-203.8 -2.1,-2.7 -7,-4.8 -3.8,-10.6 6.9,3.9 13.8,7.7 20.5,11.7 552.8,328.6 1105.6,657.2 1658.4,985.8 35.4,21 70,43.1 103.6,67.2 308.9,221.6 488.8,594.3 452.7,990.5 -8.2,90.1 -27.4,177.7 -57.3,263 -19.9,56.7 -44.5,111.3 -73.3,164.1 -2,3.6 -5.9,7 -3.6,13.3 6.4,-4 12.1,-7.3 17.6,-10.9 150.5,-98.6 301,-197.3 451.5,-296 13.4,-8.8 26.8,-17.5 40.1,-26.4 2,-1.3 5,-2.5 3.2,-7.2 -6,-0.1 -12.5,-0.5 -18.9,-0.4 -55.3,0.8 -110.6,1.8 -166,2.5 -4.3,0.1 -9.4,2.2 -13,-3.7 3.7,-6.2 9.7,-10.5 15,-15.4 62.6,-57.9 125.4,-115.8 188,-173.7 94.5,-87.3 189.1,-174.6 283.5,-261.9 3.5,-3.2 8.5,-5.7 9.3,-12.8 -5,0.9 -8.9,1.3 -12.6,2.3 -20.6,5.5 -41.1,11.2 -61.7,16.8 -103.5,28 -207.1,55.9 -310.6,83.8 -3.4,0.9 -7,0.8 -13.9,1.5 12.5,-15.5 24.1,-27.3 35.1,-39.6 11.6,-12.9 23.3,-25.7 34.9,-38.5 11.2,-12.3 22.6,-24.5 33.5,-37.1 11.2,-12.9 24.3,-24.1 34.3,-40.6 -22.1,0.7 -41.3,6.7 -60.8,9.9 -19.7,3.3 -39.2,7.6 -58.9,11.2 -19.4,3.5 -38.5,9.2 -59.7,10.2 0.8,-4.6 1.1,-7.8 1.8,-10.9 13.7,-59.7 27.5,-119.4 41.3,-179.2 39.2,-170 78.5,-340.1 117.8,-510.1 8.2,-35.7 16.6,-71.4 24.9,-107 1.2,-5.1 1.1,-5.1 -1.2,-15.7 -15.1,14 -29.7,27.5 -44.3,41 -15.1,14.1 -30.2,28.2 -45.3,42.3 -14.6,13.7 -29.2,27.3 -43.8,41 -14.6,13.7 -29.2,27.3 -43.9,41 -14.6,13.6 -29.2,27.3 -43.9,40.9 -15.1,14.1 -30.1,28.3 -45.3,42.3 -14.7,13.4 -28.5,27.8 -45.4,41.2 -4.8,-8.8 -9,-16.3 -12.9,-23.9 -152.4,-292.5 -304.7,-585.1 -457,-877.6 -28.3,-54.4 -56.5,-108.8 -85,-163.1 -1.9,-3.6 -2.2,-9.8 -9.5,-8.8 -2.4,18.3 -5,36.8 -7.3,55.2 -2.4,19.2 -4.6,38.4 -7,57.5 -2.3,18.5 -4.1,37.1 -7.2,55.5 -3.1,18.6 -2.5,38 -9.4,58.1 -18.5,-14.9 -34.6,-29.7 -51.1,-44 -16.1,-14 -32.1,-28.1 -48.2,-42.1 -16.6,-14.5 -33.1,-28.9 -49.7,-43.4 -16.6,-14.5 -33.1,-29 -49.7,-43.4 -16.1,-14 -32.1,-28.1 -48.2,-42.1 -16.6,-14.5 -33.1,-29 -49.7,-43.5 -16.6,-14.5 -33.2,-28.9 -49.7,-43.4 -16.1,-14 -32.1,-28.1 -48.2,-42.1 -16.6,-14.5 -33.1,-28.9 -49.7,-43.4 -16.6,-14.5 -33.1,-29 -49.7,-43.4 -16.1,-14 -32.1,-28.1 -48.2,-42.1 -16.6,-14.5 -33.1,-28.9 -49.7,-43.4 -16.6,-14.5 -33.1,-29 -49.7,-43.4 -16.1,-14 -32.1,-28.1 -48.2,-42.1 -16.6,-14.5 -33.1,-29 -49.7,-43.4 -16.6,-14.5 -33.2,-28.9 -49.7,-43.4 -16.1,-14 -32.1,-28.1 -48.2,-42.1 -16.6,-14.5 -33.2,-28.9 -49.7,-43.4 -16.6,-14.5 -33.1,-29 -49.7,-43.5 -16.1,-14 -32.1,-28.1 -48.2,-42.1 -16.6,-14.5 -33.1,-28.9 -49.7,-43.4 -16.6,-14.5 -33.1,-29 -49.7,-43.4 -16.1,-14 -32.1,-28.1 -48.2,-42.1 -16.6,-14.5 -33.1,-29 -49.7,-43.4 -16.6,-14.5 -33.1,-28.9 -49.7,-43.4 -16.1,-14 -32.1,-28.1 -48.2,-42.1 -16.6,-14.5 -33.2,-28.9 -49.7,-43.4 -16.5,-14.5 -33.1,-29 -49.7,-43.4 -16.1,-14 -32.1,-28.1 -48.2,-42.1 -16.6,-14.5 -33.1,-29 -49.7,-43.5 -16.6,-14.5 -33.1,-29 -49.7,-43.4 -16.1,-14 -32.1,-28.1 -48.2,-42.1 -16.6,-14.5 -33.1,-29 -49.7,-43.5 -16.6,-14.5 -33.1,-28.9 -49.7,-43.4 -16.1,-14 -31.9,-28.3 -48.2,-42.1 -16.4,-13.8 -31.4,-29.5 -50.6,-40.4 10.4,23.1 23.4,44.6 35.7,66.3 12.2,21.4 24.5,42.8 36.8,64.2 12.6,22 25.3,43.9 37.9,65.8 12.6,22 25.2,43.9 37.8,65.9 12.6,22 25.3,43.9 37.9,65.8 12.3,21.4 24.6,42.8 36.8,64.1 12.6,22 25.2,43.9 37.8,65.9 12.6,22 25.3,43.9 37.9,65.8 12.6,22 25.2,43.9 37.8,65.9 12.3,21.4 24.6,42.7 36.9,64.1 12.6,22 25.2,43.9 37.8,65.9 12.6,22 25.2,43.9 37.9,65.9 12.6,22 25.3,43.9 37.9,65.9 12.3,21.4 24.5,42.8 36.8,64.2 12.6,22 25.5,43.8 37.9,65.9 12.3,21.8 25.7,42.9 39,70.1 C 2112.4,1502.3 1724.2,1336.5 1336,1171 947.2,1005 558.2,838.9 169.1,673 c -0.9,0.9 -1.8,1.8 -2.8,2.7 4.4,4.9 8.7,9.8 13.3,14.6 421.6,437.1 843.2,874.2 1264.9,1311.3 83.8,86.8 167.6,173.7 251.3,260.6 3.9,4 9.3,7.2 10.6,15.4 -29.5,-3.5 -57.5,-9.5 -85.6,-14 -28.3,-4.5 -56.4,-9.9 -84.7,-14.7 -28.2,-4.8 -56.5,-9.4 -84.8,-14.2 -28.2,-4.8 -56.5,-9.7 -84.7,-14.6 -28.2,-4.9 -56.4,-10.3 -84.7,-14.6 -27.9,-4.3 -55.6,-11 -84.7,-11.5 26.5,22.4 54.3,42.5 81.9,63 28.4,21 56.8,42 85.3,63 27.9,20.6 55.8,41.2 83.6,61.8 28.4,21 56.9,41.9 85.3,62.9 27.9,20.6 55.8,41.2 83.6,61.8 28.3,21 56.8,41.7 85.6,63.4 -2.9,7.2 -5.2,13.3 -7.9,19.3 -91.2,202.3 -182.4,404.5 -273.6,606.7 -30.4,67.4 -60.8,134.8 -91,202.3 -2,4.4 -5.3,8.7 -4,16.3 6.7,-6.4 12.1,-11.4 17.2,-16.5 115.9,-115 231.9,-230.1 347.8,-345.2 3.8,-3.8 7.5,-7.6 11.4,-11.2 2.3,-2.1 4.5,-5.2 8.3,-2.9 0.2,0.6 0.7,1.2 0.7,1.8 -3.5,189.3 -6.9,378.5 -10.4,567.8 0,0.5 0.3,1.3 0.8,1.6 0.5,0.3 1.3,0.3 3.1,0.6 8.6,-16 15.4,-33.3 23.2,-50.1 7.6,-16.3 14.6,-32.9 22.3,-49.1 7.8,-16.6 13.8,-34.1 24.2,-50.6 6.6,7.3 6.8,15.7 8.8,23.2 33.3,120.7 66.4,241.5 99.3,362.3 2.5,9.3 6.3,17.2 12.6,24.5 28.5,32.7 56.6,65.6 84.9,98.5 2.5,2.9 5.5,5.3 10.5,10.1 -0.3,-6.1 -0.3,-9.1 -0.6,-12.1 -1.8,-16.6 -4,-33.1 -5.3,-49.7 -8.8,-109.8 -1.9,-218.5 22.7,-325.9 61.1,-266 201.3,-480.8 419.7,-644.2 54.4,-40.7 110.4,-79.4 165.4,-119.4 m 482.8,1569.2 c 312.3,0.7 568.5,-252.4 568.9,-568 0.4,-314 -253.5,-568.8 -567.6,-569.4 -316.6,-0.6 -570.2,256.3 -569.9,569.1 0.1,313.6 254.8,568.7 568.6,568.3 z"
   id="path4"
   inkscape:connector-curvature="0"
   style="display:none;fill:#ffffff" />
	<linearGradient
   id="SVGID_1_"
   gradientUnits="userSpaceOnUse"
   x1="2503.7773"
   y1="4369.0649"
   x2="2503.7773"
   y2="617.78442">
		<stop
   offset="0"
   style="stop-color:#DE6921"
   id="stop6" />
		<stop
   offset="1"
   style="stop-color:#E5B734"
   id="stop8" />
	</linearGradient>
	<path
   class="st1"
   d="m 2592.7,2827.9 c -55,39.9 -110.9,78.7 -165.4,119.4 -218.5,163.4 -358.7,378.2 -419.7,644.2 -24.6,107.3 -31.6,216.1 -22.7,325.9 1.3,16.6 3.6,33.1 5.3,49.7 0.3,3 0.3,6 0.6,12.1 -5,-4.8 -8,-7.2 -10.5,-10.1 -28.3,-32.8 -56.4,-65.8 -84.9,-98.5 -6.3,-7.3 -10.1,-15.2 -12.6,-24.5 -32.9,-120.8 -66,-241.6 -99.3,-362.3 -2.1,-7.4 -2.2,-15.9 -8.8,-23.2 -10.4,16.5 -16.4,34 -24.2,50.6 -7.7,16.3 -14.7,32.8 -22.3,49.1 -7.8,16.8 -14.5,34.1 -23.2,50.1 -1.8,-0.3 -2.6,-0.3 -3.1,-0.6 -0.4,-0.3 -0.8,-1 -0.8,-1.6 3.5,-189.3 6.9,-378.5 10.4,-567.8 0,-0.6 -0.4,-1.2 -0.7,-1.8 -3.9,-2.3 -6.1,0.7 -8.3,2.9 -3.9,3.6 -7.6,7.5 -11.4,11.2 -115.9,115.1 -231.8,230.1 -347.8,345.2 -5.1,5.1 -10.5,10 -17.2,16.5 -1.3,-7.6 2,-11.9 4,-16.3 30.3,-67.5 60.6,-134.9 91,-202.3 91.2,-202.2 182.4,-404.5 273.6,-606.7 2.7,-6 5,-12.1 7.9,-19.3 -28.8,-21.7 -57.3,-42.4 -85.6,-63.4 -27.9,-20.6 -55.7,-41.2 -83.6,-61.8 -28.4,-21 -56.9,-42 -85.3,-62.9 -27.9,-20.6 -55.8,-41.2 -83.6,-61.8 -28.4,-21 -56.9,-41.9 -85.3,-63 -27.6,-20.4 -55.4,-40.6 -81.9,-63 29.2,0.4 56.8,7.2 84.7,11.5 28.3,4.3 56.5,9.7 84.7,14.6 28.2,4.9 56.4,9.8 84.7,14.6 28.2,4.8 56.5,9.4 84.8,14.2 28.2,4.8 56.4,10.2 84.7,14.7 28.2,4.5 56.1,10.5 85.6,14 -1.3,-8.1 -6.7,-11.3 -10.6,-15.4 -83.7,-86.9 -167.5,-173.7 -251.3,-260.6 C 1023,1564.4 601.3,1127.3 179.7,690.2 c -4.6,-4.7 -8.9,-9.7 -13.3,-14.6 0.9,-0.9 1.8,-1.8 2.8,-2.7 389,166 778,332.1 1167.1,497.9 388.2,165.5 776.4,331.2 1169.1,498.6 -13.3,-27.2 -26.7,-48.3 -39,-70.1 -12.4,-22.1 -25.3,-43.9 -37.9,-65.9 -12.3,-21.4 -24.5,-42.8 -36.8,-64.2 -12.6,-22 -25.2,-43.9 -37.9,-65.9 -12.6,-22 -25.2,-43.9 -37.9,-65.9 -12.6,-22 -25.2,-43.9 -37.8,-65.9 -12.3,-21.4 -24.6,-42.7 -36.9,-64.1 -12.6,-22 -25.2,-43.9 -37.8,-65.9 -12.6,-22 -25.3,-43.9 -37.9,-65.8 -12.6,-22 -25.2,-43.9 -37.8,-65.9 -12.3,-21.4 -24.6,-42.8 -36.8,-64.1 -12.6,-22 -25.3,-43.9 -37.9,-65.8 -12.6,-22 -25.2,-43.9 -37.8,-65.9 -12.6,-22 -25.3,-43.9 -37.9,-65.8 -12.3,-21.4 -24.6,-42.7 -36.8,-64.2 -12.4,-21.8 -25.4,-43.2 -35.7,-66.3 19.3,10.9 34.2,26.5 50.6,40.4 16.3,13.8 32.2,28 48.2,42.1 16.6,14.5 33.1,28.9 49.7,43.4 16.6,14.5 33.1,29 49.7,43.5 16.1,14 32.1,28.1 48.2,42.1 16.6,14.5 33.1,28.9 49.7,43.4 16.6,14.5 33.1,29 49.7,43.5 16.1,14 32.1,28.1 48.2,42.1 16.6,14.5 33.1,29 49.7,43.4 16.6,14.4 33.2,28.9 49.7,43.4 16.1,14 32.1,28.1 48.2,42.1 16.6,14.5 33.1,28.9 49.7,43.4 16.6,14.5 33.1,29 49.7,43.4 16.1,14 32.1,28.1 48.2,42.1 16.6,14.5 33.1,29 49.7,43.4 16.6,14.5 33.1,29 49.7,43.4 16.1,14 32.1,28.1 48.2,42.1 16.6,14.5 33.1,29 49.7,43.5 16.6,14.5 33.2,28.9 49.7,43.4 16.1,14 32.1,28.1 48.2,42.1 16.6,14.5 33.1,28.9 49.7,43.4 16.6,14.5 33.1,29 49.7,43.4 16.1,14 32.1,28.1 48.2,42.1 16.6,14.5 33.1,29 49.7,43.4 16.6,14.5 33.1,28.9 49.7,43.4 16.1,14 32.1,28.1 48.2,42.1 16.6,14.5 33.1,29 49.7,43.4 16.6,14.5 33.2,28.9 49.7,43.4 16.1,14 32.1,28.1 48.2,42.1 16.6,14.5 33.2,28.9 49.7,43.4 16.6,14.5 33.1,29 49.7,43.5 16.1,14 32.1,28.1 48.2,42.1 16.6,14.5 33.1,29 49.7,43.4 16.6,14.5 33.1,28.9 49.7,43.4 16.1,14 32.1,28.2 48.2,42.1 16.5,14.3 32.6,29.1 51.1,44 6.8,-20.2 6.3,-39.5 9.4,-58.1 3.1,-18.4 4.9,-37 7.2,-55.5 2.4,-19.2 4.6,-38.4 7,-57.5 2.3,-18.4 4.9,-36.9 7.3,-55.2 7.4,-1 7.7,5.2 9.5,8.8 28.5,54.3 56.7,108.7 85,163.1 152.3,292.5 304.7,585.1 457,877.6 4,7.6 8.1,15.1 12.9,23.9 16.9,-13.4 30.7,-27.8 45.4,-41.2 15.2,-14 30.2,-28.2 45.3,-42.3 14.6,-13.6 29.2,-27.3 43.9,-40.9 14.6,-13.6 29.2,-27.3 43.9,-41 14.6,-13.7 29.2,-27.3 43.8,-41 15.1,-14.1 30.2,-28.2 45.3,-42.3 14.5,-13.5 29.1,-27 44.3,-41 2.4,10.6 2.4,10.6 1.2,15.7 -8.3,35.7 -16.7,71.3 -24.9,107 -39.3,170 -78.5,340.1 -117.8,510.1 -13.8,59.7 -27.5,119.4 -41.3,179.2 -0.7,3.1 -1,6.2 -1.8,10.9 21.2,-1 40.3,-6.6 59.7,-10.2 19.7,-3.6 39.2,-7.9 58.9,-11.2 19.5,-3.2 38.7,-9.3 60.8,-9.9 -10,16.5 -23.1,27.7 -34.3,40.6 -10.9,12.6 -22.3,24.7 -33.5,37.1 -11.6,12.8 -23.3,25.6 -34.9,38.5 -11,12.3 -22.7,24.1 -35.1,39.6 6.9,-0.7 10.5,-0.6 13.9,-1.5 103.6,-27.9 207.1,-55.8 310.6,-83.8 20.6,-5.6 41.1,-11.3 61.7,-16.8 3.8,-1 7.7,-1.4 12.6,-2.3 -0.8,7.1 -5.8,9.6 -9.3,12.8 -94.5,87.4 -189,174.7 -283.5,261.9 -62.7,57.9 -125.4,115.8 -188,173.7 -5.3,4.9 -11.3,9.2 -15,15.4 3.5,5.9 8.7,3.7 13,3.7 55.3,-0.7 110.7,-1.7 166,-2.5 6.5,-0.1 12.9,0.3 18.9,0.4 1.8,4.6 -1.2,5.9 -3.2,7.2 -13.3,8.9 -26.7,17.6 -40.1,26.4 -150.5,98.7 -301,197.3 -451.5,296 -5.5,3.6 -11.2,6.9 -17.6,10.9 -2.4,-6.3 1.6,-9.7 3.6,-13.3 28.8,-52.8 53.4,-107.4 73.3,-164.1 29.9,-85.3 49.1,-172.9 57.3,-263 36.2,-396.2 -143.8,-768.9 -452.7,-990.5 -33.6,-24.1 -68.2,-46.1 -103.6,-67.2 -552.8,-328.6 -1105.6,-657.2 -1658.4,-985.8 -6.8,-4 -13.7,-7.8 -20.5,-11.7 -3.2,5.8 1.7,7.9 3.8,10.6 54.8,68 109.7,135.9 164.6,203.8 97.2,120.3 194.5,240.5 291.7,360.8 4.1,5 9.4,9.4 11.2,17.9 -34.7,-1.9 -68.2,-5.7 -101.7,-8.6 -33.9,-3 -67.7,-6.3 -101.5,-9.3 -33.7,-3 -67.5,-5.8 -101.3,-8.7 -0.8,7.5 5,8.5 8.4,10.7 43.9,29 88.1,57.8 132.1,86.6 131.6,86.2 263.2,172.4 394.7,258.6"
   id="path11"
   style="fill:#ffffff"
   inkscape:connector-curvature="0" />
	<path
   class="st2"
   d="m 3075.4,4397.2 c -313.8,0.4 -568.4,-254.6 -568.6,-568.3 -0.2,-312.8 253.3,-569.7 569.9,-569.1 314.1,0.6 568,255.4 567.6,569.4 -0.4,315.5 -256.7,568.6 -568.9,568 z"
   id="path13"
   inkscape:connector-curvature="0"
   style="fill:#ffffff;stroke:#e5b734;stroke-miterlimit:10" />
</g>
</svg>